<?xml version="1.0" encoding="UTF-8" standalone="no"?>
<svg
   xmlns:dc="http://purl.org/dc/elements/1.1/"
   xmlns:cc="http://creativecommons.org/ns#"
   xmlns:rdf="http://www.w3.org/1999/02/22-rdf-syntax-ns#"
   xmlns:svg="http://www.w3.org/2000/svg"
   xmlns="http://www.w3.org/2000/svg"
   xmlns:sodipodi="http://sodipodi.sourceforge.net/DTD/sodipodi-0.dtd"
   xmlns:inkscape="http://www.inkscape.org/namespaces/inkscape"
   width="1280"
   height="1536"
   version="1.1"
   id="svg4"
   sodipodi:docname="user.svg"
   inkscape:version="0.92.1 r15371">
  <metadata
     id="metadata10">
    <rdf:RDF>
      <cc:Work
         rdf:about="">
        <dc:format>image/svg+xml</dc:format>
        <dc:type
           rdf:resource="http://purl.org/dc/dcmitype/StillImage" />
        <dc:title></dc:title>
      </cc:Work>
    </rdf:RDF>
  </metadata>
  <defs
     id="defs8" />
  <sodipodi:namedview
     pagecolor="#ffffff"
     bordercolor="#666666"
     borderopacity="1"
     objecttolerance="10"
     gridtolerance="10"
     guidetolerance="10"
     inkscape:pageopacity="0"
     inkscape:pageshadow="2"
     inkscape:window-width="1259"
     inkscape:window-height="872"
     id="namedview6"
     showgrid="false"
     inkscape:zoom="0.15733333"
     inkscape:cx="661.01695"
     inkscape:cy="766.0508"
     inkscape:window-x="2438"
     inkscape:window-y="306"
     inkscape:window-maximized="0"
     inkscape:current-layer="svg4" />
  <path
     glyph-name="user"
     unicode=""
     horiz-adv-x="1280"
     d="m 1280,1271 q 0,109 -62.5,187 -62.5,78 -150.5,78 H 213 Q 125,1536 62.499999,1458 0,1380 0,1271 q 0,-85 8.5,-160.5 8.499999,-75.5 31.499999,-152 23,-76.5 58.5,-131 Q 134,773 192.5,738.5 251,704 327,704 458,832 640,832 822,832 953.00005,704 1029,704 1087.5,738.5 q 58.5,34.5 94,89 35.5,54.5 58.5,131 23,76.5 31.5,152 8.5,75.5 8.5,160.5 z M 1024,384 Q 1024,543 911.50005,655.5 799,768 640,768 481,768 368.5,655.5 256,543 256,384 256,225 368.5,112.5 481,0 640,0 799,0 911.50005,112.5 1024,225 1024,384 Z"
     id="path2"
     inkscape:connector-curvature="0" />
</svg>
