{
    "authenticationStrategy": "google",
    "dataDir"               : "data",
    "logDir"                : "logs",
    "server"                : {
        "host" : "localhost",
        "port" : 3000,
        "mongo": {
            "batchLifespanSeconds": 600
        }
    },
    "ui"                    : {
        "host": "localhost",
        "port": 8080
    },
    "google"                : {
        "clientID"    : "9858199334-uu920ppgao3ujdofheq62gg292dcr62p.apps.googleusercontent.com",
        "clientSecret": "",
        "apiKey"      : ""
    }
}
