{
  "defaultSeverity": "error",
  "extends"        : [
    "tslint:recommended"
  ],
  "jsRules"        : {},
  "rules"          : {
    "no-console"                  : [
      true,
      "log"
    ],
    "arrow-parens"                : [
      true,
      "ban-single-arg-parens"
    ],
    "interface-name"              : false,
    "no-unused-expression"        : [
      true,
      "allow-fast-null-checks"
    ],
    "no-var-requires"             : false,
    "object-literal-key-quotes"   : false,
    "object-literal-sort-keys"    : false,
    "one-variable-per-declaration": false,
    "ordered-imports"             : false,
    "quotemark"                   : [
      true,
      "single"
    ],
    "trailing-comma"              : [
      true,
      {
        "multiline" : "never",
        "singleline": "never"
      }
    ],
    "typedef"                     : [
      true,
      "call-signature",
      "parameter",
      "property-declaration",
      "object-destructuring",
      "array-destructuring"
    ],
    "variable-name"               : [
      true,
      "ban-keywords",
      "check-format",
      "allow-leading-underscore",
      "allow-pascal-case"
    ]
  },
  "rulesDirectory" : []
}
